<?xml version="1.0" encoding="utf-8"?>
<!-- Generator: Adobe Illustrator 18.0.0, SVG Export Plug-In . SVG Version: 6.00 Build 0)  -->
<!DOCTYPE svg PUBLIC "-//W3C//DTD SVG 1.1//EN" "http://www.w3.org/Graphics/SVG/1.1/DTD/svg11.dtd">
<svg version="1.1" id="Layer_1" xmlns="http://www.w3.org/2000/svg" xmlns:xlink="http://www.w3.org/1999/xlink" x="0px" y="0px"
	 viewBox="0 0 48 40" enable-background="new 0 0 48 40" xml:space="preserve">
<path fill="#A5D9CD" d="M42.8,25.6c2.9,0,5.2-2.3,5.2-5.2c0-2.9-2.3-5.2-5.2-5.2v0H5.2v0c-2.9,0-5.2,2.3-5.2,5.2
	c0,2.9,2.3,5.2,5.2,5.2v0L42.8,25.6L42.8,25.6z"/>
<g>
	<g>
		<defs>
			<rect id="SVGID_1_" x="23.6" y="0.4" width="24.4" height="25.2"/>
		</defs>
		<clipPath id="SVGID_2_">
			<use xlink:href="#SVGID_1_"  overflow="visible"/>
		</clipPath>
		<g clip-path="url(#SVGID_2_)">
			<defs>
				<rect id="SVGID_3_" x="23.6" y="0.4" width="24.4" height="25.2"/>
			</defs>
			<clipPath id="SVGID_4_">
				<use xlink:href="#SVGID_3_"  overflow="visible"/>
			</clipPath>
			<path clip-path="url(#SVGID_4_)" fill="#F7941E" d="M42.8,25.6c2.9,0,5.2-2.3,5.2-5.2c0-2.9-2.3-5.2-5.2-5.2
				c-2.9,0-5.2,2.3-5.2,5.2C37.5,23.3,39.9,25.6,42.8,25.6"/>
			<path clip-path="url(#SVGID_4_)" fill="#F7941E" d="M32.4,1.9c2.1,2,2.2,5.3,0.2,7.4c-2,2.1-5.3,2.2-7.4,0.2
				C23.1,7.4,23,4.1,25,2C27-0.1,30.3-0.1,32.4,1.9"/>
			<path clip-path="url(#SVGID_4_)" fill="#F7941E" d="M32.4,1.9C30.3-0.1,27-0.1,25,2c-2,2.1-1.9,5.4,0.2,7.4l0,0l13.9,14.7
				c2,2,5.4,2,7.4,0c2-2,2-5.4,0-7.4L32.4,1.9z"/>
		</g>
	</g>
</g>
<g>
	<g>
		<defs>
			<rect id="SVGID_5_" x="22.8" y="15.2" width="25.2" height="24.4"/>
		</defs>
		<clipPath id="SVGID_6_">
			<use xlink:href="#SVGID_5_"  overflow="visible"/>
		</clipPath>
		<g clip-path="url(#SVGID_6_)">
			<defs>
				<rect id="SVGID_7_" x="22.8" y="15.2" width="25.2" height="24.4"/>
			</defs>
			<clipPath id="SVGID_8_">
				<use xlink:href="#SVGID_7_"  overflow="visible"/>
			</clipPath>
			<path clip-path="url(#SVGID_8_)" fill="#0B94CF" d="M48,20.4c0-2.9-2.3-5.2-5.2-5.2c-2.9,0-5.2,2.3-5.2,5.2
				c0,2.9,2.3,5.2,5.2,5.2C45.7,25.6,48,23.3,48,20.4"/>
			<path clip-path="url(#SVGID_8_)" fill="#0B94CF" d="M24.2,30.7c2-2.1,5.3-2.2,7.4-0.2c2.1,2,2.2,5.3,0.2,7.4
				c-2,2.1-5.3,2.2-7.4,0.2C22.3,36.1,22.2,32.8,24.2,30.7"/>
			<path clip-path="url(#SVGID_8_)" fill="#0B94CF" d="M24.2,30.7c-2,2.1-1.9,5.4,0.2,7.4c2.1,2,5.4,1.9,7.4-0.2l0,0l14.7-13.9
				c2-2,2-5.4,0-7.4c-2-2-5.4-2-7.4,0L24.2,30.7z"/>
		</g>
	</g>
</g>
</svg>
